"harga_jual","stok","satuan_penjualan","id_produk","id_apotek"
"2266","175","dus","14","4"
"1801","17","lmbar","5","4"
"5166","104","pcs","3","5"
"2392","14","pcs","8","3"
"4905","120","strip","1","5"
"1581","109","strip","9","3"
"5553","55","pcs","17","2"
"5893","43","strip","7","3"
"5931","11","botol","5","1"
"1867","95","pcs","14","3"
"1131","165","strip","15","5"
"1783","49","dus","8","1"
"1704","127","lmbar","12","2"
"2728","60","pcs","1","4"
"1699","55","dus","12","5"
"5662","5","pcs","12","4"
"1924","31","dus","3","3"
"3775","132","strip","5","5"
"2657","144","pcs","18","5"
"4778","181","lmbar","19","4"